{"status":true,"items":[{"tmdb":{"type":"tv","id":"128999","season":1,"vote_average":5,"vote_count":6},"imdb":{"id":null},"modified":{"time":"2025-05-05T13:48:04.000Z"},"_id":"6e890e85592f3ffa529332e0e35bc207","name":"H\u00e0ng X\u00f3m C\u1ee7a T\u00f4i Kh\u00f4ng Ch\u1ecbu L\u1edbn","slug":"hang-xom-cua-toi-khong-chiu-lon","origin_name":"My Fated Boy","poster_url":"https:\/\/phimimg.com\/upload\/vod\/20250505-1\/dea27cef88786f7cb0b8dabace16754e.jpg","thumb_url":"https:\/\/phimimg.com\/upload\/vod\/20250505-1\/08ec60d3ad37019754a8af97f0d1dddf.jpg","year":2021},{"tmdb":{"type":"tv","id":"214994","season":2,"vote_average":8.5,"vote_count":18},"imdb":{"id":null},"modified":{"time":"2025-05-05T13:24:53.000Z"},"_id":"26c75f7aebf955cd1fccdb191f479623","name":"Ch\u1ecb \u0110\u1ea1i H\u1ecdc \u0110\u01b0\u1eddng","slug":"chi-dai-hoc-duong","origin_name":"Bitch And Rich","poster_url":"https:\/\/phimimg.com\/upload\/vod\/20250505-1\/99d5a45ab6af5fc37e62be9bce4e02ef.jpg","thumb_url":"https:\/\/phimimg.com\/upload\/vod\/20250505-1\/0b5d6e7ddb3051d6426b49eb76764169.jpg","year":2023},{"tmdb":{"type":"tv","id":"273174","season":1,"vote_average":9,"vote_count":1},"imdb":{"id":null},"modified":{"time":"2025-05-05T13:18:23.000Z"},"_id":"5f22e82f3d2c279d57c76a0513276abb","name":"The Bangkokboy Series","slug":"the-bangkokboy-series","origin_name":"The Bangkok Boy","poster_url":"https:\/\/phimimg.com\/upload\/vod\/20250505-1\/7e3f6bdf49ad444f5efd620f1795da6b.jpg","thumb_url":"https:\/\/phimimg.com\/upload\/vod\/20250505-1\/6e9dbf70735842c04abd88688f8213f3.jpg","year":2025},{"tmdb":{"type":"tv","id":"278816","season":1,"vote_average":10,"vote_count":1},"imdb":{"id":null},"modified":{"time":"2025-05-05T11:20:28.000Z"},"_id":"9a2327a2fcc570914ce9c9e61581cbf8","name":"Th\u00e1nh N\u1eef Th\u1ea7n Kh\u1ec9 \u0110\u1ed9t Gia Nh\u1eadp K\u1ef5 S\u0129 \u0110o\u00e0n","slug":"thanh-nu-than-khi-dot-gia-nhap-ky-si-doan","origin_name":"The Gorilla God's Go-To Girl","poster_url":"https:\/\/phimimg.com\/upload\/vod\/20250414-1\/ed70e8255d6773b69291bf3a80250d05.jpg","thumb_url":"https:\/\/phimimg.com\/upload\/vod\/20250414-1\/b5d2833baf0c266a6849679638100697.jpg","year":2025},{"tmdb":{"type":"tv","id":"261868","season":1,"vote_average":0,"vote_count":0},"imdb":{"id":null},"modified":{"time":"2025-05-05T11:19:19.000Z"},"_id":"0f49d14c2bfc523456225589dc27b6db","name":"Ph\u00f9 Th\u1ee7y Quan S\u00e1t","slug":"phu-thuy-quan-sat","origin_name":"Witch Watch","poster_url":"https:\/\/phimimg.com\/upload\/vod\/20250407-1\/0396c7e07437b131647d838d77948e61.jpg","thumb_url":"https:\/\/phimimg.com\/upload\/vod\/20250407-1\/7aaf7edab555dd8a60ec031d4cadc10a.jpg","year":2025},{"tmdb":{"type":"tv","id":"285916","season":1,"vote_average":0,"vote_count":0},"imdb":{"id":null},"modified":{"time":"2025-05-05T11:18:52.000Z"},"_id":"905fb31e485e7f2fad5cba1f425d72e6","name":"Ng\u01b0\u1eddi D\u1eabn Tin","slug":"nguoi-dan-tin","origin_name":"News Anchor","poster_url":"https:\/\/phimimg.com\/upload\/vod\/20250420-1\/fc034082577226cdea03e90562bdde7e.jpg","thumb_url":"https:\/\/phimimg.com\/upload\/vod\/20250420-1\/f1b527ca00bfaab4314fe40186959419.jpg","year":2025},{"tmdb":{"type":"tv","id":"254389","season":1,"vote_average":7,"vote_count":1},"imdb":{"id":null},"modified":{"time":"2025-05-05T11:18:30.000Z"},"_id":"669c35c595fa7abcc0b82d0ba7d90f66","name":"\u0110\u1eb9p H\u01a1n Thi\u00ean \u0110\u01b0\u1eddng","slug":"dep-hon-thien-duong","origin_name":"Heavenly Ever After","poster_url":"https:\/\/phimimg.com\/upload\/vod\/20250420-1\/1b015fa3fbe54eabdfba406dcb6f76b7.jpg","thumb_url":"https:\/\/phimimg.com\/upload\/vod\/20250420-1\/0a423a2a972cc43907579c345881851c.jpg","year":2025},{"tmdb":{"type":"tv","id":"235355","season":1,"vote_average":10,"vote_count":1},"imdb":{"id":null},"modified":{"time":"2025-05-05T11:18:03.000Z"},"_id":"008bfef4efdd575ac3e9a5c0c43661e9","name":"Chuy\u1ec7n \u0110\u1eddi B\u00e1c S\u0129 N\u1ed9i Tr\u00fa","slug":"chuyen-doi-bac-si-noi-tru","origin_name":"Resident Playbook","poster_url":"https:\/\/phimimg.com\/upload\/vod\/20250412-1\/0a1528a5a29c65e629b8850df90aedaa.jpg","thumb_url":"https:\/\/phimimg.com\/upload\/vod\/20250412-1\/d0f6bf857a372e25c63f2ca7ef501d48.jpg","year":2025},{"tmdb":{"type":"tv","id":"262700","season":1,"vote_average":0,"vote_count":0},"imdb":{"id":null},"modified":{"time":"2025-05-05T11:17:32.000Z"},"_id":"3e0ce87560cc1e32353de7d1eedb58f9","name":"C\u00f4 G\u00e1i Ng\u1ef1a \u0110ua L\u1ecd Lem X\u00e1m","slug":"co-gai-ngua-dua-lo-lem-xam","origin_name":"Umamusume: Cinderella Gray","poster_url":"https:\/\/phimimg.com\/upload\/vod\/20250407-1\/f4a15d1ac362000ba7371a20613a42fa.jpg","thumb_url":"https:\/\/phimimg.com\/upload\/vod\/20250407-1\/7388a0948ebddf990cedf42a9ab3ddfd.jpg","year":2025},{"tmdb":{"type":"tv","id":"1877","season":5,"vote_average":7.9,"vote_count":893},"imdb":{"id":null},"modified":{"time":"2025-05-04T20:49:05.000Z"},"_id":"b2335c67c2b28490257e34f369099f4e","name":"Phineas V\u00e0 Ferb (Ph\u1ea7n 2)","slug":"phineas-va-ferb-phan-2","origin_name":"Phineas And Ferb (Season 2)","poster_url":"https:\/\/phimimg.com\/upload\/vod\/20250504-1\/818dd1b91b3ac7cb81c4074806d9d78d.jpg","thumb_url":"https:\/\/phimimg.com\/upload\/vod\/20250504-1\/34a4700e9e10db8b31cca09d5a7e5078.jpg","year":2009}],"pagination":{"totalItems":22558,"totalItemsPerPage":10,"currentPage":10,"totalPages":2256}}