{"status":true,"items":[{"tmdb":{"type":null,"id":null,"season":null,"vote_average":0,"vote_count":0},"imdb":{"id":null},"modified":{"time":"2025-05-07T12:08:02.000Z"},"_id":"1be7e085f5416cb9b7bbee08b506ae4a","name":"Ng\u00f4i \u0110\u1ec1n K\u1ef3 Qu\u00e1i 4","slug":"ngoi-den-ky-quai-4","origin_name":"Pee Nak 4","poster_url":"https:\/\/phimimg.com\/upload\/vod\/20240729-1\/922b5732aee3c0238d9c9c414b9e5374.jpg","thumb_url":"https:\/\/phimimg.com\/upload\/vod\/20240729-1\/f7d4044fe6da0614d5471198db232cfb.jpg","year":2024},{"tmdb":{"type":null,"id":null,"season":null,"vote_average":0,"vote_count":0},"imdb":{"id":null},"modified":{"time":"2025-05-07T12:07:06.000Z"},"_id":"d554f7bb7be44a7267068a7df88ddd20","name":"Ng\u00f4i \u0110\u1ec1n K\u1ef3 Qu\u00e1i 3","slug":"ngoi-den-ky-quai-3","origin_name":"Pee Nak 3","poster_url":"https:\/\/phimimg.com\/upload\/vod\/20240828-1\/032a3d66dc62c1353f1c69c35d2da546.jpg","thumb_url":"https:\/\/phimimg.com\/upload\/vod\/20240828-1\/11e31a1d4a98e8043b6d008418da4633.jpg","year":2022},{"tmdb":{"type":"movie","id":"1129557","season":null,"vote_average":6,"vote_count":1},"imdb":{"id":null},"modified":{"time":"2025-05-07T12:05:06.000Z"},"_id":"233e90f3f8794e85bc244be259a99724","name":"\u0110\u1ea7u Xu\u00f4i \u0110u\u00f4i \u0110\u00fat L\u00f3t","slug":"dau-xuoi-duoi-dut-lot","origin_name":"Lobby","poster_url":"https:\/\/phimimg.com\/upload\/vod\/20250502-1\/35052c11f73521f4e244bda9e27ff59b.jpg","thumb_url":"https:\/\/phimimg.com\/upload\/vod\/20250502-1\/82faca088cf1c400a766486ea0fc2f8c.jpg","year":2025},{"tmdb":{"type":"movie","id":"603765","season":null,"vote_average":5.4,"vote_count":17},"imdb":{"id":null},"modified":{"time":"2025-05-07T12:04:31.000Z"},"_id":"bfc58c81e954a4ee8722992437a86d9d","name":"L\u1edbp B\u1ed5 T\u00fac D\u1ea3i Ng\u00e2n H\u00e0","slug":"lop-bo-tuc-dai-ngan-ha","origin_name":"Looking Up","poster_url":"https:\/\/phimimg.com\/upload\/vod\/20250507-1\/e1b88a06e07c8810739f96384707f66c.jpg","thumb_url":"https:\/\/phimimg.com\/upload\/vod\/20250507-1\/afe88e0eb719361bae4efb774230a885.jpg","year":2019},{"tmdb":{"type":"movie","id":"1353946","season":null,"vote_average":0,"vote_count":0},"imdb":{"id":null},"modified":{"time":"2025-05-07T11:42:29.000Z"},"_id":"72fde87f1f5436457658bfc37ddaf9c6","name":"Linh Mi\u00eau: Qu\u1ef7 Nh\u1eadp Tr\u00e0ng","slug":"linh-mieu-quy-nhap-trang","origin_name":"Spirit Whisker: The Revenant","poster_url":"https:\/\/phimimg.com\/upload\/vod\/20241216-1\/87b3bf4f9465892275ade60894320551.jpg","thumb_url":"https:\/\/phimimg.com\/upload\/vod\/20241216-1\/844eeb240b6f49734c526da5ff85279f.jpg","year":2024},{"tmdb":{"type":"tv","id":"286768","season":1,"vote_average":0,"vote_count":0},"imdb":{"id":null},"modified":{"time":"2025-05-06T22:57:21.000Z"},"_id":"0d058e139fbe33abf738e3278abeffc5","name":"Th\u1ecf Ng\u1ecdc N\u01a1i Cung Tr\u0103ng","slug":"tho-ngoc-noi-cung-trang","origin_name":"Rabbit On The Moon","poster_url":"https:\/\/phimimg.com\/upload\/vod\/20250408-1\/dea1484d0331ae0b3fc76b79c47b2a2e.jpg","thumb_url":"https:\/\/phimimg.com\/upload\/vod\/20250408-1\/f13d0aae5f8fbd6fb3018eeeb49b9280.jpg","year":2025},{"tmdb":{"type":null,"id":null,"season":null,"vote_average":0,"vote_count":0},"imdb":{"id":null},"modified":{"time":"2025-05-06T22:27:55.000Z"},"_id":"673de96b04fa3adcae1aacda704217ef","name":"Truy S\u00e1t","slug":"truy-sat-2019","origin_name":"Kill It","poster_url":"https:\/\/phimimg.com\/upload\/vod\/20231219-1\/d6e75134ed44e7eeb8fca177fa4ee2e7.jpg","thumb_url":"https:\/\/phimimg.com\/upload\/vod\/20231219-1\/261635aab43c896d73b36d1535588e53.jpg","year":2019},{"tmdb":{"type":null,"id":null,"season":null,"vote_average":0,"vote_count":0},"imdb":{"id":null},"modified":{"time":"2025-05-06T21:45:02.000Z"},"_id":"d9976f1c2c0c972d1cee0c3647cbd194","name":"H\u1ea1nh Ph\u00fac B\u1ecb \u0110\u00e1nh C\u1eafp","slug":"hanh-phuc-bi-danh-cap","origin_name":"Stolen Happiness","poster_url":"https:\/\/phimimg.com\/upload\/vod\/20240821-1\/dd4dd618bd2e53e356f0665f5567103d.jpg","thumb_url":"https:\/\/phimimg.com\/upload\/vod\/20240821-1\/4c92222e6d20720d84e587e959bb2ca9.jpg","year":2024},{"tmdb":{"type":"tv","id":"282896","season":1,"vote_average":0,"vote_count":0},"imdb":{"id":null},"modified":{"time":"2025-05-06T18:30:19.000Z"},"_id":"0d3132155b700d53e2684d499a3c30f3","name":"T\u00f4i L\u00e0 Tri\u1ec7u Gi\u00e1p \u0110\u1ec7: Phong Mang","slug":"toi-la-trieu-giap-de-phong-mang","origin_name":"The Rise Of Zhao Jiadi","poster_url":"https:\/\/phimimg.com\/upload\/vod\/20250502-1\/e0a4166dc363595c020bfa5d9ebcc8a2.jpg","thumb_url":"https:\/\/phimimg.com\/upload\/vod\/20250502-1\/390c4b9ab37311f6d15d7ed93f89d6f3.jpg","year":2025},{"tmdb":{"type":"tv","id":"290191","season":1,"vote_average":0,"vote_count":0},"imdb":{"id":null},"modified":{"time":"2025-05-06T18:29:13.000Z"},"_id":"940222ade2401c27cf112992065c8877","name":"T\u00ecnh Y\u00eau Gi\u1ea3 T\u1ea1o","slug":"tinh-yeu-gia-tao","origin_name":"Kill Lover","poster_url":"https:\/\/phimimg.com\/upload\/vod\/20250504-1\/3c1b0e320bdb203d97700b3e2da43a9c.jpg","thumb_url":"https:\/\/phimimg.com\/upload\/vod\/20250504-1\/936cc301de56a847852f406c9a94187a.jpg","year":2025}],"pagination":{"totalItems":22558,"totalItemsPerPage":10,"currentPage":1,"totalPages":2256}}